62.939578219565746,44.86800455955349,4.6945122759437865,0.2259344597233847,0.25695345005176373,neutral
62.709593422806435,45.023730918135655,3.5847309533699425,0.2502564353211466,0.2707232265366875,neutral
65.76581407080506,44.525961974324545,3.5923571539161077,0.2557934069954004,0.2633614616461483,neutral
64.03263620472478,0,0,0.21190485335129697,0.23150544538267362,neutral
