73.08412583380218,0.2857142857142857,0.28664328126081573,neutral
79.24364808021318,0.31016048255800993,0.3525337646221854,neutral
79.24364808021318,0.31016048255800993,0.3525337646221854,neutral
77.92983282900937,0.3339791012515797,0.39266673459826384,neutral
78.99285979028453,0.3339791012515797,0.37997197031472213,neutral
78.99285979028453,0.3339791012515797,0.37997197031472213,neutral
78.86668873133938,0.33314830232638476,0.36121098098073523,neutral
79.46732089579561,0.35063651636789894,0.36349493196739263,neutral
79.46732089579561,0.35063651636789894,0.36349493196739263,neutral
