69.01627746031518,0.2857142857142857,0.29673014758835153,neutral
77.1452543365802,0.2645914644170346,0.296875,neutral
78.27138554912256,0.27941176470588236,0.3125,neutral
80.48064501111486,0.28002413819748573,0.30378599425940744,neutral
79.5272823666855,0.3086900418198737,0.3125,neutral
78.41078097108337,0.2645914644170346,0.27356644148693054,neutral
78.72510479811808,0.3086900418198737,0.3196247975501235,neutral
79.10688055596958,0.3,0.29851969936341105,neutral
77.4369875946015,0.2857142857142857,0.3196247975501235,neutral
79.10688055596958,0.3,0.29851969936341105,neutral
76.54004879959032,0.3088235294117647,0.3045567599291618,neutral
76.54004879959032,0.3088235294117647,0.3045567599291618,neutral
77.96017105312953,0.27941176470588236,0.31312645011491014,neutral
76.89146501577135,0.279290990217981,0.28125,neutral
77.80967556994469,0.29411764705882354,0.3232169673918494,neutral
77.06316274781005,0.27941176470588236,0.28858548681883717,neutral
78.7214096956929,0.27941176470588236,0.2976543065800139,neutral
78.26701389427126,0.279290990217981,0.29673014758835153,neutral
73.98209821303233,0.2714285714285714,0.2885020475895156,neutral
78.55577387597091,0.2714285714285714,0.3132793065800139,neutral
80.71107300371699,0.279290990217981,0.2881891687282267,happy
80.51275351986774,0.2583039126881514,0.2724429605943788,happy
80.1608197838465,0.2855977389887699,0.3134470086591258,happy
79.93815166624972,0.29434230908692777,0.30398391636559674,happy
79.946490381994,0.29399051601892734,0.2726021397669222,happy
81.51839480665018,0.27941176470588236,0.3184210126543051,neutral
78.15594501227503,0.2730654036277541,0.3126692197175142,neutral
76.87072721476392,0.2351924128151419,0.2663603657481944,happy
73.60711312912485,0.24336754164088711,0.25893398727134126,neutral
82.64780276477259,0.2353705355857314,0.25182262437346936,neutral
