79.67749103249496,42.94309210411252,0,0.34664799182467365,0.3354950507572779,neutral
68.91096507177303,42.58836068944943,0,0.3500086229195425,0.33723326807955206,neutral
70.1960149758805,43.19374669858503,0,0.3328424142502636,0.33855382591132344,neutral
62.526641624734815,43.12068492770858,0,0.2894736842105263,0.27670792565968705,neutral
65.66820619626007,0,0,0.24324324324324326,0.2431936059740483,neutral
63.79466892140033,0,0,0.2709442651502823,0.27072980977055977,neutral
67.03791398414876,0,0,0.22300089546444568,0.23098229785100458,neutral
68.87455093159328,0,0,0.23684210526315788,0.2443833746280838,neutral
69.31095157135933,0,0,0.24315445213123463,0.26365006318139583,neutral
63.84598439740451,0,0,0.258084956263435,0.25103755300318564,neutral
